2018-02-23 11:45:05|10215.6|BTC|
2018-02-23 11:45:05|854.949|ETH|
2018-02-23 11:45:05|0.986666|XRP|
2018-02-23 11:45:05|1265.48|BCH|
2018-02-23 11:45:05|208.318|LTC|
2018-02-23 11:45:05|0.341973|ADA|
2018-02-23 11:45:05|119.723|NEO|
2018-02-23 11:45:05|0.377034|XLM|
2018-02-23 11:45:05|8.41419|EOS|
2018-02-23 11:45:05|625.141|DASH|
2018-02-23 11:45:05|1.73072|MIOTA|
2018-02-23 11:45:05|287.439|XMR|
2018-02-23 11:45:05|0.437096|XEM|
2018-02-23 11:45:05|36.374|ETC|
2018-02-23 11:45:05|5.88896|VEN|
2018-02-23 11:45:05|0.0420172|TRX|
2018-02-23 11:45:05|22.737|LSK|
2018-02-23 11:45:05|0.997759|USDT|
2018-02-23 11:45:05|121.783|BTG|
2018-02-23 11:45:05|27.2688|QTUM|
2018-02-23 11:45:05|17.3207|OMG|
2018-02-23 11:45:05|11.9172|NANO|
2018-02-23 11:45:05|3.94879|ICX|
2018-02-23 11:45:05|408.095|ZEC|
2018-02-23 11:45:05|9.24794|BNB|
2018-02-23 11:45:05|0.0616554|XVG|
2018-02-23 11:45:05|0.00490445|BCN|
2018-02-23 11:45:05|3.5774|STEEM|
2018-02-23 11:45:05|23.7333|PPT|
2018-02-23 11:45:05|7.8082|STRAT|
2018-02-23 11:45:05|0.00656454|DOGE|
2018-02-23 11:45:05|0.0225125|SC|
2018-02-23 11:45:05|1.99268|RHOC|
2018-02-23 11:45:05|6.76654|WAVES|
2018-02-23 11:45:05|0.186803|SNT|
2018-02-23 11:45:05|321.754|DGD|
2018-02-23 11:45:05|1009.76|MKR|
2018-02-23 11:45:05|0.223754|BTS|
2018-02-23 11:45:05|2.33807|AE|
2018-02-23 11:45:05|21.1338|WTC|
2018-02-23 11:45:05|75.7315|DCR|
2018-02-23 11:45:05|243.819|VERI|
2018-02-23 11:45:05|44.831|REP|
2018-02-23 11:45:05|0.955297|ZRX|
2018-02-23 11:45:05|140.732|ZCL|
2018-02-23 11:45:05|0.0748443|ETN|
2018-02-23 11:45:05|10.5058|HSR|
2018-02-23 11:45:05|2.41729|R|
2018-02-23 11:45:05|4.18574|KMD|
2018-02-23 11:45:05|0.432657|ARDR|
2018-02-23 11:45:05|4.52129|KCS|
2018-02-23 11:45:05|3.86309|ARK|
2018-02-23 11:45:05|38.1496|GAS|
2018-02-23 11:45:05|0.357295|BAT|
2018-02-23 11:45:05|0.0536162|ZIL|
2018-02-23 11:45:05|1.44003|DRGN|
2018-02-23 11:45:05|0.0345828|DGB|
2018-02-23 11:45:05|0.599002|LRC|
2018-02-23 11:45:05|0.340532|BTM|
2018-02-23 11:45:05|7.26312|CNX|
2018-02-23 11:45:05|0.616118|SYS|
2018-02-23 11:45:05|5.55641|MONA|
2018-02-23 11:45:05|1.26156|ELF|
2018-02-23 11:45:05|1.29309|POLY|
2018-02-23 11:45:05|0.0291456|DENT|
2018-02-23 11:45:05|0.836084|QASH|
2018-02-23 11:45:05|2.15161|KNC|
2018-02-23 11:45:05|5.18724|PIVX|
2018-02-23 11:45:05|8.00574|NAS|
2018-02-23 11:45:05|0.331483|GNT|
2018-02-23 11:45:05|0.000849126|DCN|
2018-02-23 11:45:05|3.08845|AION|
2018-02-23 11:45:05|0.00955779|RDD|
2018-02-23 11:45:05|23.0267|BTX|
2018-02-23 11:45:05|409.422|GBYTE|
2018-02-23 11:45:05|3.45086|ETHOS|
2018-02-23 11:45:05|4.26074|GXS|
2018-02-23 11:45:05|0.0364355|IOST|
2018-02-23 11:45:05|27.5505|FCT|
2018-02-23 11:45:05|0.0505616|FUN|
2018-02-23 11:45:05|0.609181|POWR|
2018-02-23 11:45:05|0.632124|LINK|
2018-02-23 11:45:05|4.08941|SALT|
2018-02-23 11:45:05|0.150255|CND|
2018-02-23 11:45:05|51.8827|XZC|
2018-02-23 11:45:05|0.940099|PLR|
2018-02-23 11:45:05|0.000282687|KIN|
2018-02-23 11:45:05|0.210329|NXT|
2018-02-23 11:45:05|23.5297|PART|
2018-02-23 11:45:05|0.321923|REQ|
2018-02-23 11:45:05|5.00354|BNT|
2018-02-23 11:45:05|0.418575|MAID|
2018-02-23 11:45:05|2.5254|ENG|
2018-02-23 11:45:05|14.2665|NEBL|
2018-02-23 11:45:05|0.248769|SMART|
2018-02-23 11:45:05|4.11475|VTC|
2018-02-23 11:45:05|3.37916|RDN|
2018-02-23 11:45:05|1.61386|PAY|
2018-02-23 11:45:05|4.06761|EMC|
2018-02-23 11:45:05|2.57751|GAME|
